{
    "head": {
        "vars": [
            "r"
        ]
    },
    "results": {
        "bindings": [
            {
                "r": {
                    "datatype": "http://www.opengis.net/ont/geosparql#Geometry",
                    "type": "literal",
                    "value": "POLYGON ((15.1005933221 58.4947120191 20,15.1006040509 58.4951549414 20, 15.1014520301013 58.4951636301661 20,15.1014648563 58.4952755645 20,15.102165213 58.4952888248 20,15.1021246126 58.4943552868 20,15.1013633553 58.4943897645 20,15.101399834262 58.4947081166789 20,15.1005933221 58.4947120191 20))"
                }
            }
        ]
    }
}
